%YAML 1.1
%TAG !u! tag:unity3d.com,2011:
--- !u!21 &2100000
Material:
  serializedVersion: 6
  m_ObjectHideFlags: 0
  m_CorrespondingSourceObject: {fileID: 0}
  m_PrefabInstance: {fileID: 0}
  m_PrefabAsset: {fileID: 0}
  m_Name: tex_blur_1
  m_Shader: {fileID: -6465566751694194690, guid: 82594541f76e0bc47821197c38aed017,
    type: 3}
  m_ShaderKeywords: 
  m_LightmapFlags: 4
  m_EnableInstancingVariants: 0
  m_DoubleSidedGI: 0
  m_CustomRenderQueue: -1
  stringTagMap:
    MotionVector: User
  disabledShaderPasses:
  - MOTIONVECTORS
  m_SavedProperties:
    serializedVersion: 3
    m_TexEnvs:
    - Texture2D_5DDC1739:
        m_Texture: {fileID: 2800000, guid: fbf78294c53ee564da2196e7fbfa5015, type: 3}
        m_Scale: {x: 1, y: 1}
        m_Offset: {x: 0, y: 0}
    - Texture2D_A56F1DE0:
        m_Texture: {fileID: 0}
        m_Scale: {x: 1, y: 1}
        m_Offset: {x: 0, y: 0}
    - _MainTex:
        m_Texture: {fileID: 0}
        m_Scale: {x: 1, y: 1}
        m_Offset: {x: 0, y: 0}
    m_Floats:
    - Amount: 0
    - Brightness: 1
    - Opacity: 1
    - Vector1_6832DD22: 3
    - Vector1_8A901BA2: 10
    - Vector1_906B661C: 0.5
    - Vector1_CB954BB2: 11.16
    - Vector1_CD535221: 1
    - Vector1_CEE1AFA6: 0
    m_Colors: []
