{
    "m_SerializedProperties": [
        {
            "typeInfo": {
                "fullName": "UnityEditor.ShaderGraph.Internal.Texture2DShaderProperty"
            },
            "JSONnodeData": "{\n    \"m_Guid\": {\n        \"m_GuidSerialized\": \"b159bbc9-9e61-4c59-9b32-ae47e0fd48a5\"\n    },\n    \"m_Name\": \"tex\",\n    \"m_DefaultReferenceName\": \"Texture2D_CB2B24E6\",\n    \"m_OverrideReferenceName\": \"\",\n    \"m_GeneratePropertyBlock\": true,\n    \"m_Precision\": 0,\n    \"m_GPUInstanced\": false,\n    \"m_Hidden\": false,\n    \"m_Value\": {\n        \"m_SerializedTexture\": \"{\\\"texture\\\":{\\\"instanceID\\\":0}}\",\n        \"m_Guid\": \"\"\n    },\n    \"m_Modifiable\": true,\n    \"m_DefaultType\": 0\n}"
        },
        {
            "typeInfo": {
                "fullName": "UnityEditor.ShaderGraph.Internal.Vector1ShaderProperty"
            },
            "JSONnodeData": "{\n    \"m_Guid\": {\n        \"m_GuidSerialized\": \"43d16cb5-9289-4fe4-81da-c94a065ab59f\"\n    },\n    \"m_Name\": \"Alpha\",\n    \"m_DefaultReferenceName\": \"Vector1_251AAA42\",\n    \"m_OverrideReferenceName\": \"alpha\",\n    \"m_GeneratePropertyBlock\": true,\n    \"m_Precision\": 0,\n    \"m_GPUInstanced\": false,\n    \"m_Hidden\": false,\n    \"m_Value\": 1.0,\n    \"m_FloatType\": 1,\n    \"m_RangeValues\": {\n        \"x\": 0.0,\n        \"y\": 1.0\n    }\n}"
        },
        {
            "typeInfo": {
                "fullName": "UnityEditor.ShaderGraph.Internal.Vector1ShaderProperty"
            },
            "JSONnodeData": "{\n    \"m_Guid\": {\n        \"m_GuidSerialized\": \"3d7f329c-a2e5-4400-b59c-e622d468bbe9\"\n    },\n    \"m_Name\": \"emission\",\n    \"m_DefaultReferenceName\": \"Vector1_903167CC\",\n    \"m_OverrideReferenceName\": \"emit\",\n    \"m_GeneratePropertyBlock\": true,\n    \"m_Precision\": 0,\n    \"m_GPUInstanced\": false,\n    \"m_Hidden\": false,\n    \"m_Value\": 1.0,\n    \"m_FloatType\": 1,\n    \"m_RangeValues\": {\n        \"x\": 0.0,\n        \"y\": 1.0\n    }\n}"
        },
        {
            "typeInfo": {
                "fullName": "UnityEditor.ShaderGraph.Internal.ColorShaderProperty"
            },
            "JSONnodeData": "{\n    \"m_Guid\": {\n        \"m_GuidSerialized\": \"a156fcad-d2e3-4886-a5ce-c95b183b743d\"\n    },\n    \"m_Name\": \"color_BKG\",\n    \"m_DefaultReferenceName\": \"Color_8637E775\",\n    \"m_OverrideReferenceName\": \"color_BKG\",\n    \"m_GeneratePropertyBlock\": true,\n    \"m_Precision\": 0,\n    \"m_GPUInstanced\": false,\n    \"m_Hidden\": false,\n    \"m_Value\": {\n        \"r\": 0.0,\n        \"g\": 0.4463936686515808,\n        \"b\": 0.849056601524353,\n        \"a\": 0.0\n    },\n    \"m_ColorMode\": 0\n}"
        },
        {
            "typeInfo": {
                "fullName": "UnityEditor.ShaderGraph.Internal.ColorShaderProperty"
            },
            "JSONnodeData": "{\n    \"m_Guid\": {\n        \"m_GuidSerialized\": \"29e299c4-977b-429d-9b1f-f6afb387121b\"\n    },\n    \"m_Name\": \"color_ICON\",\n    \"m_DefaultReferenceName\": \"Color_9DA597A4\",\n    \"m_OverrideReferenceName\": \"color_ICON\",\n    \"m_GeneratePropertyBlock\": true,\n    \"m_Precision\": 0,\n    \"m_GPUInstanced\": false,\n    \"m_Hidden\": false,\n    \"m_Value\": {\n        \"r\": 0.801886796951294,\n        \"g\": 0.801886796951294,\n        \"b\": 0.801886796951294,\n        \"a\": 0.0\n    },\n    \"m_ColorMode\": 0\n}"
        }
    ],
    "m_SerializedKeywords": [],
    "m_SerializableNodes": [
        {
            "typeInfo": {
                "fullName": "UnityEditor.ShaderGraph.PBRMasterNode"
            },
            "JSONnodeData": "{\n    \"m_GuidSerialized\": \"051b24ee-8ca9-4946-8a85-6c4f43a8d930\",\n    \"m_GroupGuidSerialized\": \"00000000-0000-0000-0000-000000000000\",\n    \"m_Name\": \"PBR Master\",\n    \"m_NodeVersion\": 0,\n    \"m_DrawState\": {\n        \"m_Expanded\": true,\n        \"m_Position\": {\n            \"serializedVersion\": \"2\",\n            \"x\": 92.99994659423828,\n            \"y\": 111.9999771118164,\n            \"width\": 200.0,\n            \"height\": 317.0\n        }\n    },\n    \"m_SerializableSlots\": [\n        {\n            \"typeInfo\": {\n                \"fullName\": \"UnityEditor.ShaderGraph.PositionMaterialSlot\"\n            },\n            \"JSONnodeData\": \"{\\n    \\\"m_Id\\\": 9,\\n    \\\"m_DisplayName\\\": \\\"Vertex Position\\\",\\n    \\\"m_SlotType\\\": 0,\\n    \\\"m_Priority\\\": 2147483647,\\n    \\\"m_Hidden\\\": false,\\n    \\\"m_ShaderOutputName\\\": \\\"Vertex Position\\\",\\n    \\\"m_StageCapability\\\": 1,\\n    \\\"m_Value\\\": {\\n        \\\"x\\\": 0.0,\\n        \\\"y\\\": 0.0,\\n        \\\"z\\\": 0.0\\n    },\\n    \\\"m_DefaultValue\\\": {\\n        \\\"x\\\": 0.0,\\n        \\\"y\\\": 0.0,\\n        \\\"z\\\": 0.0\\n    },\\n    \\\"m_Labels\\\": [\\n        \\\"X\\\",\\n        \\\"Y\\\",\\n        \\\"Z\\\"\\n    ],\\n    \\\"m_Space\\\": 0\\n}\"\n        },\n        {\n            \"typeInfo\": {\n                \"fullName\": \"UnityEditor.ShaderGraph.NormalMaterialSlot\"\n            },\n            \"JSONnodeData\": \"{\\n    \\\"m_Id\\\": 10,\\n    \\\"m_DisplayName\\\": \\\"Vertex Normal\\\",\\n    \\\"m_SlotType\\\": 0,\\n    \\\"m_Priority\\\": 2147483647,\\n    \\\"m_Hidden\\\": false,\\n    \\\"m_ShaderOutputName\\\": \\\"Vertex Normal\\\",\\n    \\\"m_StageCapability\\\": 1,\\n    \\\"m_Value\\\": {\\n        \\\"x\\\": 0.0,\\n        \\\"y\\\": 0.0,\\n        \\\"z\\\": 0.0\\n    },\\n    \\\"m_DefaultValue\\\": {\\n        \\\"x\\\": 0.0,\\n        \\\"y\\\": 0.0,\\n        \\\"z\\\": 0.0\\n    },\\n    \\\"m_Labels\\\": [\\n        \\\"X\\\",\\n        \\\"Y\\\",\\n        \\\"Z\\\"\\n    ],\\n    \\\"m_Space\\\": 0\\n}\"\n        },\n        {\n            \"typeInfo\": {\n                \"fullName\": \"UnityEditor.ShaderGraph.TangentMaterialSlot\"\n            },\n            \"JSONnodeData\": \"{\\n    \\\"m_Id\\\": 11,\\n    \\\"m_DisplayName\\\": \\\"Vertex Tangent\\\",\\n    \\\"m_SlotType\\\": 0,\\n    \\\"m_Priority\\\": 2147483647,\\n    \\\"m_Hidden\\\": false,\\n    \\\"m_ShaderOutputName\\\": \\\"Vertex Tangent\\\",\\n    \\\"m_StageCapability\\\": 1,\\n    \\\"m_Value\\\": {\\n        \\\"x\\\": 0.0,\\n        \\\"y\\\": 0.0,\\n        \\\"z\\\": 0.0\\n    },\\n    \\\"m_DefaultValue\\\": {\\n        \\\"x\\\": 0.0,\\n        \\\"y\\\": 0.0,\\n        \\\"z\\\": 0.0\\n    },\\n    \\\"m_Labels\\\": [\\n        \\\"X\\\",\\n        \\\"Y\\\",\\n        \\\"Z\\\"\\n    ],\\n    \\\"m_Space\\\": 0\\n}\"\n        },\n        {\n            \"typeInfo\": {\n                \"fullName\": \"UnityEditor.ShaderGraph.ColorRGBMaterialSlot\"\n            },\n            \"JSONnodeData\": \"{\\n    \\\"m_Id\\\": 0,\\n    \\\"m_DisplayName\\\": \\\"Albedo\\\",\\n    \\\"m_SlotType\\\": 0,\\n    \\\"m_Priority\\\": 2147483647,\\n    \\\"m_Hidden\\\": false,\\n    \\\"m_ShaderOutputName\\\": \\\"Albedo\\\",\\n    \\\"m_StageCapability\\\": 2,\\n    \\\"m_Value\\\": {\\n        \\\"x\\\": 0.7353569269180298,\\n        \\\"y\\\": 0.7353569269180298,\\n        \\\"z\\\": 0.7353569269180298\\n    },\\n    \\\"m_DefaultValue\\\": {\\n        \\\"x\\\": 0.0,\\n        \\\"y\\\": 0.0,\\n        \\\"z\\\": 0.0\\n    },\\n    \\\"m_Labels\\\": [\\n        \\\"X\\\",\\n        \\\"Y\\\",\\n        \\\"Z\\\"\\n    ],\\n    \\\"m_ColorMode\\\": 0\\n}\"\n        },\n        {\n            \"typeInfo\": {\n                \"fullName\": \"UnityEditor.ShaderGraph.NormalMaterialSlot\"\n            },\n            \"JSONnodeData\": \"{\\n    \\\"m_Id\\\": 1,\\n    \\\"m_DisplayName\\\": \\\"Normal\\\",\\n    \\\"m_SlotType\\\": 0,\\n    \\\"m_Priority\\\": 2147483647,\\n    \\\"m_Hidden\\\": false,\\n    \\\"m_ShaderOutputName\\\": \\\"Normal\\\",\\n    \\\"m_StageCapability\\\": 2,\\n    \\\"m_Value\\\": {\\n        \\\"x\\\": 0.0,\\n        \\\"y\\\": 0.0,\\n        \\\"z\\\": 0.0\\n    },\\n    \\\"m_DefaultValue\\\": {\\n        \\\"x\\\": 0.0,\\n        \\\"y\\\": 0.0,\\n        \\\"z\\\": 0.0\\n    },\\n    \\\"m_Labels\\\": [\\n        \\\"X\\\",\\n        \\\"Y\\\",\\n        \\\"Z\\\"\\n    ],\\n    \\\"m_Space\\\": 3\\n}\"\n        },\n        {\n            \"typeInfo\": {\n                \"fullName\": \"UnityEditor.ShaderGraph.ColorRGBMaterialSlot\"\n            },\n            \"JSONnodeData\": \"{\\n    \\\"m_Id\\\": 4,\\n    \\\"m_DisplayName\\\": \\\"Emission\\\",\\n    \\\"m_SlotType\\\": 0,\\n    \\\"m_Priority\\\": 2147483647,\\n    \\\"m_Hidden\\\": false,\\n    \\\"m_ShaderOutputName\\\": \\\"Emission\\\",\\n    \\\"m_StageCapability\\\": 2,\\n    \\\"m_Value\\\": {\\n        \\\"x\\\": 0.0,\\n        \\\"y\\\": 0.0,\\n        \\\"z\\\": 0.0\\n    },\\n    \\\"m_DefaultValue\\\": {\\n        \\\"x\\\": 0.0,\\n        \\\"y\\\": 0.0,\\n        \\\"z\\\": 0.0\\n    },\\n    \\\"m_Labels\\\": [\\n        \\\"X\\\",\\n        \\\"Y\\\",\\n        \\\"Z\\\"\\n    ],\\n    \\\"m_ColorMode\\\": 0\\n}\"\n        },\n        {\n            \"typeInfo\": {\n                \"fullName\": \"UnityEditor.ShaderGraph.Vector1MaterialSlot\"\n            },\n            \"JSONnodeData\": \"{\\n    \\\"m_Id\\\": 2,\\n    \\\"m_DisplayName\\\": \\\"Metallic\\\",\\n    \\\"m_SlotType\\\": 0,\\n    \\\"m_Priority\\\": 2147483647,\\n    \\\"m_Hidden\\\": false,\\n    \\\"m_ShaderOutputName\\\": \\\"Metallic\\\",\\n    \\\"m_StageCapability\\\": 2,\\n    \\\"m_Value\\\": 0.0,\\n    \\\"m_DefaultValue\\\": 0.0,\\n    \\\"m_Labels\\\": [\\n        \\\"X\\\"\\n    ]\\n}\"\n        },\n        {\n            \"typeInfo\": {\n                \"fullName\": \"UnityEditor.ShaderGraph.Vector1MaterialSlot\"\n            },\n            \"JSONnodeData\": \"{\\n    \\\"m_Id\\\": 5,\\n    \\\"m_DisplayName\\\": \\\"Smoothness\\\",\\n    \\\"m_SlotType\\\": 0,\\n    \\\"m_Priority\\\": 2147483647,\\n    \\\"m_Hidden\\\": false,\\n    \\\"m_ShaderOutputName\\\": \\\"Smoothness\\\",\\n    \\\"m_StageCapability\\\": 2,\\n    \\\"m_Value\\\": 0.5,\\n    \\\"m_DefaultValue\\\": 0.5,\\n    \\\"m_Labels\\\": [\\n        \\\"X\\\"\\n    ]\\n}\"\n        },\n        {\n            \"typeInfo\": {\n                \"fullName\": \"UnityEditor.ShaderGraph.Vector1MaterialSlot\"\n            },\n            \"JSONnodeData\": \"{\\n    \\\"m_Id\\\": 6,\\n    \\\"m_DisplayName\\\": \\\"Occlusion\\\",\\n    \\\"m_SlotType\\\": 0,\\n    \\\"m_Priority\\\": 2147483647,\\n    \\\"m_Hidden\\\": false,\\n    \\\"m_ShaderOutputName\\\": \\\"Occlusion\\\",\\n    \\\"m_StageCapability\\\": 2,\\n    \\\"m_Value\\\": 1.0,\\n    \\\"m_DefaultValue\\\": 1.0,\\n    \\\"m_Labels\\\": [\\n        \\\"X\\\"\\n    ]\\n}\"\n        },\n        {\n            \"typeInfo\": {\n                \"fullName\": \"UnityEditor.ShaderGraph.Vector1MaterialSlot\"\n            },\n            \"JSONnodeData\": \"{\\n    \\\"m_Id\\\": 7,\\n    \\\"m_DisplayName\\\": \\\"Alpha\\\",\\n    \\\"m_SlotType\\\": 0,\\n    \\\"m_Priority\\\": 2147483647,\\n    \\\"m_Hidden\\\": false,\\n    \\\"m_ShaderOutputName\\\": \\\"Alpha\\\",\\n    \\\"m_StageCapability\\\": 2,\\n    \\\"m_Value\\\": 1.0,\\n    \\\"m_DefaultValue\\\": 1.0,\\n    \\\"m_Labels\\\": [\\n        \\\"X\\\"\\n    ]\\n}\"\n        },\n        {\n            \"typeInfo\": {\n                \"fullName\": \"UnityEditor.ShaderGraph.Vector1MaterialSlot\"\n            },\n            \"JSONnodeData\": \"{\\n    \\\"m_Id\\\": 8,\\n    \\\"m_DisplayName\\\": \\\"AlphaClipThreshold\\\",\\n    \\\"m_SlotType\\\": 0,\\n    \\\"m_Priority\\\": 2147483647,\\n    \\\"m_Hidden\\\": false,\\n    \\\"m_ShaderOutputName\\\": \\\"AlphaClipThreshold\\\",\\n    \\\"m_StageCapability\\\": 2,\\n    \\\"m_Value\\\": 0.0,\\n    \\\"m_DefaultValue\\\": 0.0,\\n    \\\"m_Labels\\\": [\\n        \\\"X\\\"\\n    ]\\n}\"\n        }\n    ],\n    \"m_Precision\": 0,\n    \"m_PreviewExpanded\": true,\n    \"m_CustomColors\": {\n        \"m_SerializableColors\": []\n    },\n    \"m_DOTSInstancing\": false,\n    \"m_SerializableSubShaders\": [\n        {\n            \"typeInfo\": {\n                \"fullName\": \"UnityEditor.Rendering.HighDefinition.HDPBRSubShader\"\n            },\n            \"JSONnodeData\": \"{}\"\n        }\n    ],\n    \"m_Model\": 1,\n    \"m_SurfaceType\": 1,\n    \"m_AlphaMode\": 0,\n    \"m_TwoSided\": false,\n    \"m_NormalDropOffSpace\": 0\n}"
        },
        {
            "typeInfo": {
                "fullName": "UnityEditor.ShaderGraph.PropertyNode"
            },
            "JSONnodeData": "{\n    \"m_GuidSerialized\": \"436e64f8-ab43-4796-91b1-90bb69855ec4\",\n    \"m_GroupGuidSerialized\": \"00000000-0000-0000-0000-000000000000\",\n    \"m_Name\": \"Property\",\n    \"m_NodeVersion\": 0,\n    \"m_DrawState\": {\n        \"m_Expanded\": true,\n        \"m_Position\": {\n            \"serializedVersion\": \"2\",\n            \"x\": -1366.0,\n            \"y\": 272.0,\n            \"width\": 98.99999237060547,\n            \"height\": 33.999996185302737\n        }\n    },\n    \"m_SerializableSlots\": [\n        {\n            \"typeInfo\": {\n                \"fullName\": \"UnityEditor.ShaderGraph.Texture2DMaterialSlot\"\n            },\n            \"JSONnodeData\": \"{\\n    \\\"m_Id\\\": 0,\\n    \\\"m_DisplayName\\\": \\\"tex\\\",\\n    \\\"m_SlotType\\\": 1,\\n    \\\"m_Priority\\\": 2147483647,\\n    \\\"m_Hidden\\\": false,\\n    \\\"m_ShaderOutputName\\\": \\\"Out\\\",\\n    \\\"m_StageCapability\\\": 3\\n}\"\n        }\n    ],\n    \"m_Precision\": 0,\n    \"m_PreviewExpanded\": true,\n    \"m_CustomColors\": {\n        \"m_SerializableColors\": []\n    },\n    \"m_PropertyGuidSerialized\": \"b159bbc9-9e61-4c59-9b32-ae47e0fd48a5\"\n}"
        },
        {
            "typeInfo": {
                "fullName": "UnityEditor.ShaderGraph.SampleTexture2DNode"
            },
            "JSONnodeData": "{\n    \"m_GuidSerialized\": \"998ee10c-92ec-415a-8444-3d818a3195e4\",\n    \"m_GroupGuidSerialized\": \"00000000-0000-0000-0000-000000000000\",\n    \"m_Name\": \"Sample Texture 2D\",\n    \"m_NodeVersion\": 0,\n    \"m_DrawState\": {\n        \"m_Expanded\": true,\n        \"m_Position\": {\n            \"serializedVersion\": \"2\",\n            \"x\": -1172.0,\n            \"y\": 231.00001525878907,\n            \"width\": 187.0,\n            \"height\": 248.99998474121095\n        }\n    },\n    \"m_SerializableSlots\": [\n        {\n            \"typeInfo\": {\n                \"fullName\": \"UnityEditor.ShaderGraph.Vector4MaterialSlot\"\n            },\n            \"JSONnodeData\": \"{\\n    \\\"m_Id\\\": 0,\\n    \\\"m_DisplayName\\\": \\\"RGBA\\\",\\n    \\\"m_SlotType\\\": 1,\\n    \\\"m_Priority\\\": 2147483647,\\n    \\\"m_Hidden\\\": false,\\n    \\\"m_ShaderOutputName\\\": \\\"RGBA\\\",\\n    \\\"m_StageCapability\\\": 2,\\n    \\\"m_Value\\\": {\\n        \\\"x\\\": 0.0,\\n        \\\"y\\\": 0.0,\\n        \\\"z\\\": 0.0,\\n        \\\"w\\\": 0.0\\n    },\\n    \\\"m_DefaultValue\\\": {\\n        \\\"x\\\": 0.0,\\n        \\\"y\\\": 0.0,\\n        \\\"z\\\": 0.0,\\n        \\\"w\\\": 0.0\\n    }\\n}\"\n        },\n        {\n            \"typeInfo\": {\n                \"fullName\": \"UnityEditor.ShaderGraph.Vector1MaterialSlot\"\n            },\n            \"JSONnodeData\": \"{\\n    \\\"m_Id\\\": 4,\\n    \\\"m_DisplayName\\\": \\\"R\\\",\\n    \\\"m_SlotType\\\": 1,\\n    \\\"m_Priority\\\": 2147483647,\\n    \\\"m_Hidden\\\": false,\\n    \\\"m_ShaderOutputName\\\": \\\"R\\\",\\n    \\\"m_StageCapability\\\": 2,\\n    \\\"m_Value\\\": 0.0,\\n    \\\"m_DefaultValue\\\": 0.0,\\n    \\\"m_Labels\\\": [\\n        \\\"X\\\"\\n    ]\\n}\"\n        },\n        {\n            \"typeInfo\": {\n                \"fullName\": \"UnityEditor.ShaderGraph.Vector1MaterialSlot\"\n            },\n            \"JSONnodeData\": \"{\\n    \\\"m_Id\\\": 5,\\n    \\\"m_DisplayName\\\": \\\"G\\\",\\n    \\\"m_SlotType\\\": 1,\\n    \\\"m_Priority\\\": 2147483647,\\n    \\\"m_Hidden\\\": false,\\n    \\\"m_ShaderOutputName\\\": \\\"G\\\",\\n    \\\"m_StageCapability\\\": 2,\\n    \\\"m_Value\\\": 0.0,\\n    \\\"m_DefaultValue\\\": 0.0,\\n    \\\"m_Labels\\\": [\\n        \\\"X\\\"\\n    ]\\n}\"\n        },\n        {\n            \"typeInfo\": {\n                \"fullName\": \"UnityEditor.ShaderGraph.Vector1MaterialSlot\"\n            },\n            \"JSONnodeData\": \"{\\n    \\\"m_Id\\\": 6,\\n    \\\"m_DisplayName\\\": \\\"B\\\",\\n    \\\"m_SlotType\\\": 1,\\n    \\\"m_Priority\\\": 2147483647,\\n    \\\"m_Hidden\\\": false,\\n    \\\"m_ShaderOutputName\\\": \\\"B\\\",\\n    \\\"m_StageCapability\\\": 2,\\n    \\\"m_Value\\\": 0.0,\\n    \\\"m_DefaultValue\\\": 0.0,\\n    \\\"m_Labels\\\": [\\n        \\\"X\\\"\\n    ]\\n}\"\n        },\n        {\n            \"typeInfo\": {\n                \"fullName\": \"UnityEditor.ShaderGraph.Vector1MaterialSlot\"\n            },\n            \"JSONnodeData\": \"{\\n    \\\"m_Id\\\": 7,\\n    \\\"m_DisplayName\\\": \\\"A\\\",\\n    \\\"m_SlotType\\\": 1,\\n    \\\"m_Priority\\\": 2147483647,\\n    \\\"m_Hidden\\\": false,\\n    \\\"m_ShaderOutputName\\\": \\\"A\\\",\\n    \\\"m_StageCapability\\\": 2,\\n    \\\"m_Value\\\": 0.0,\\n    \\\"m_DefaultValue\\\": 0.0,\\n    \\\"m_Labels\\\": [\\n        \\\"X\\\"\\n    ]\\n}\"\n        },\n        {\n            \"typeInfo\": {\n                \"fullName\": \"UnityEditor.ShaderGraph.Texture2DInputMaterialSlot\"\n            },\n            \"JSONnodeData\": \"{\\n    \\\"m_Id\\\": 1,\\n    \\\"m_DisplayName\\\": \\\"Texture\\\",\\n    \\\"m_SlotType\\\": 0,\\n    \\\"m_Priority\\\": 2147483647,\\n    \\\"m_Hidden\\\": false,\\n    \\\"m_ShaderOutputName\\\": \\\"Texture\\\",\\n    \\\"m_StageCapability\\\": 3,\\n    \\\"m_Texture\\\": {\\n        \\\"m_SerializedTexture\\\": \\\"{\\\\\\\"texture\\\\\\\":{\\\\\\\"instanceID\\\\\\\":0}}\\\",\\n        \\\"m_Guid\\\": \\\"\\\"\\n    },\\n    \\\"m_DefaultType\\\": 0\\n}\"\n        },\n        {\n            \"typeInfo\": {\n                \"fullName\": \"UnityEditor.ShaderGraph.UVMaterialSlot\"\n            },\n            \"JSONnodeData\": \"{\\n    \\\"m_Id\\\": 2,\\n    \\\"m_DisplayName\\\": \\\"UV\\\",\\n    \\\"m_SlotType\\\": 0,\\n    \\\"m_Priority\\\": 2147483647,\\n    \\\"m_Hidden\\\": false,\\n    \\\"m_ShaderOutputName\\\": \\\"UV\\\",\\n    \\\"m_StageCapability\\\": 3,\\n    \\\"m_Value\\\": {\\n        \\\"x\\\": 0.0,\\n        \\\"y\\\": 0.0\\n    },\\n    \\\"m_DefaultValue\\\": {\\n        \\\"x\\\": 0.0,\\n        \\\"y\\\": 0.0\\n    },\\n    \\\"m_Labels\\\": [\\n        \\\"X\\\",\\n        \\\"Y\\\"\\n    ],\\n    \\\"m_Channel\\\": 0\\n}\"\n        },\n        {\n            \"typeInfo\": {\n                \"fullName\": \"UnityEditor.ShaderGraph.SamplerStateMaterialSlot\"\n            },\n            \"JSONnodeData\": \"{\\n    \\\"m_Id\\\": 3,\\n    \\\"m_DisplayName\\\": \\\"Sampler\\\",\\n    \\\"m_SlotType\\\": 0,\\n    \\\"m_Priority\\\": 2147483647,\\n    \\\"m_Hidden\\\": false,\\n    \\\"m_ShaderOutputName\\\": \\\"Sampler\\\",\\n    \\\"m_StageCapability\\\": 3\\n}\"\n        }\n    ],\n    \"m_Precision\": 0,\n    \"m_PreviewExpanded\": false,\n    \"m_CustomColors\": {\n        \"m_SerializableColors\": []\n    },\n    \"m_TextureType\": 0,\n    \"m_NormalMapSpace\": 0\n}"
        },
        {
            "typeInfo": {
                "fullName": "UnityEditor.ShaderGraph.MultiplyNode"
            },
            "JSONnodeData": "{\n    \"m_GuidSerialized\": \"90eec6d3-2073-476e-a740-ad05a81c1d0e\",\n    \"m_GroupGuidSerialized\": \"00000000-0000-0000-0000-000000000000\",\n    \"m_Name\": \"Multiply\",\n    \"m_NodeVersion\": 0,\n    \"m_DrawState\": {\n        \"m_Expanded\": true,\n        \"m_Position\": {\n            \"serializedVersion\": \"2\",\n            \"x\": -304.00006103515627,\n            \"y\": -206.0,\n            \"width\": 137.0,\n            \"height\": 117.99999237060547\n        }\n    },\n    \"m_SerializableSlots\": [\n        {\n            \"typeInfo\": {\n                \"fullName\": \"UnityEditor.ShaderGraph.DynamicValueMaterialSlot\"\n            },\n            \"JSONnodeData\": \"{\\n    \\\"m_Id\\\": 0,\\n    \\\"m_DisplayName\\\": \\\"A\\\",\\n    \\\"m_SlotType\\\": 0,\\n    \\\"m_Priority\\\": 2147483647,\\n    \\\"m_Hidden\\\": false,\\n    \\\"m_ShaderOutputName\\\": \\\"A\\\",\\n    \\\"m_StageCapability\\\": 3,\\n    \\\"m_Value\\\": {\\n        \\\"e00\\\": 0.0,\\n        \\\"e01\\\": 0.0,\\n        \\\"e02\\\": 0.0,\\n        \\\"e03\\\": 0.0,\\n        \\\"e10\\\": 0.0,\\n        \\\"e11\\\": 0.0,\\n        \\\"e12\\\": 0.0,\\n        \\\"e13\\\": 0.0,\\n        \\\"e20\\\": 0.0,\\n        \\\"e21\\\": 0.0,\\n        \\\"e22\\\": 0.0,\\n        \\\"e23\\\": 0.0,\\n        \\\"e30\\\": 0.0,\\n        \\\"e31\\\": 0.0,\\n        \\\"e32\\\": 0.0,\\n        \\\"e33\\\": 0.0\\n    },\\n    \\\"m_DefaultValue\\\": {\\n        \\\"e00\\\": 1.0,\\n        \\\"e01\\\": 0.0,\\n        \\\"e02\\\": 0.0,\\n        \\\"e03\\\": 0.0,\\n        \\\"e10\\\": 0.0,\\n        \\\"e11\\\": 1.0,\\n        \\\"e12\\\": 0.0,\\n        \\\"e13\\\": 0.0,\\n        \\\"e20\\\": 0.0,\\n        \\\"e21\\\": 0.0,\\n        \\\"e22\\\": 1.0,\\n        \\\"e23\\\": 0.0,\\n        \\\"e30\\\": 0.0,\\n        \\\"e31\\\": 0.0,\\n        \\\"e32\\\": 0.0,\\n        \\\"e33\\\": 1.0\\n    }\\n}\"\n        },\n        {\n            \"typeInfo\": {\n                \"fullName\": \"UnityEditor.ShaderGraph.DynamicValueMaterialSlot\"\n            },\n            \"JSONnodeData\": \"{\\n    \\\"m_Id\\\": 1,\\n    \\\"m_DisplayName\\\": \\\"B\\\",\\n    \\\"m_SlotType\\\": 0,\\n    \\\"m_Priority\\\": 2147483647,\\n    \\\"m_Hidden\\\": false,\\n    \\\"m_ShaderOutputName\\\": \\\"B\\\",\\n    \\\"m_StageCapability\\\": 3,\\n    \\\"m_Value\\\": {\\n        \\\"e00\\\": 2.0,\\n        \\\"e01\\\": 2.0,\\n        \\\"e02\\\": 2.0,\\n        \\\"e03\\\": 2.0,\\n        \\\"e10\\\": 2.0,\\n        \\\"e11\\\": 2.0,\\n        \\\"e12\\\": 2.0,\\n        \\\"e13\\\": 2.0,\\n        \\\"e20\\\": 2.0,\\n        \\\"e21\\\": 2.0,\\n        \\\"e22\\\": 2.0,\\n        \\\"e23\\\": 2.0,\\n        \\\"e30\\\": 2.0,\\n        \\\"e31\\\": 2.0,\\n        \\\"e32\\\": 2.0,\\n        \\\"e33\\\": 2.0\\n    },\\n    \\\"m_DefaultValue\\\": {\\n        \\\"e00\\\": 1.0,\\n        \\\"e01\\\": 0.0,\\n        \\\"e02\\\": 0.0,\\n        \\\"e03\\\": 0.0,\\n        \\\"e10\\\": 0.0,\\n        \\\"e11\\\": 1.0,\\n        \\\"e12\\\": 0.0,\\n        \\\"e13\\\": 0.0,\\n        \\\"e20\\\": 0.0,\\n        \\\"e21\\\": 0.0,\\n        \\\"e22\\\": 1.0,\\n        \\\"e23\\\": 0.0,\\n        \\\"e30\\\": 0.0,\\n        \\\"e31\\\": 0.0,\\n        \\\"e32\\\": 0.0,\\n        \\\"e33\\\": 1.0\\n    }\\n}\"\n        },\n        {\n            \"typeInfo\": {\n                \"fullName\": \"UnityEditor.ShaderGraph.DynamicValueMaterialSlot\"\n            },\n            \"JSONnodeData\": \"{\\n    \\\"m_Id\\\": 2,\\n    \\\"m_DisplayName\\\": \\\"Out\\\",\\n    \\\"m_SlotType\\\": 1,\\n    \\\"m_Priority\\\": 2147483647,\\n    \\\"m_Hidden\\\": false,\\n    \\\"m_ShaderOutputName\\\": \\\"Out\\\",\\n    \\\"m_StageCapability\\\": 3,\\n    \\\"m_Value\\\": {\\n        \\\"e00\\\": 0.0,\\n        \\\"e01\\\": 0.0,\\n        \\\"e02\\\": 0.0,\\n        \\\"e03\\\": 0.0,\\n        \\\"e10\\\": 0.0,\\n        \\\"e11\\\": 0.0,\\n        \\\"e12\\\": 0.0,\\n        \\\"e13\\\": 0.0,\\n        \\\"e20\\\": 0.0,\\n        \\\"e21\\\": 0.0,\\n        \\\"e22\\\": 0.0,\\n        \\\"e23\\\": 0.0,\\n        \\\"e30\\\": 0.0,\\n        \\\"e31\\\": 0.0,\\n        \\\"e32\\\": 0.0,\\n        \\\"e33\\\": 0.0\\n    },\\n    \\\"m_DefaultValue\\\": {\\n        \\\"e00\\\": 1.0,\\n        \\\"e01\\\": 0.0,\\n        \\\"e02\\\": 0.0,\\n        \\\"e03\\\": 0.0,\\n        \\\"e10\\\": 0.0,\\n        \\\"e11\\\": 1.0,\\n        \\\"e12\\\": 0.0,\\n        \\\"e13\\\": 0.0,\\n        \\\"e20\\\": 0.0,\\n        \\\"e21\\\": 0.0,\\n        \\\"e22\\\": 1.0,\\n        \\\"e23\\\": 0.0,\\n        \\\"e30\\\": 0.0,\\n        \\\"e31\\\": 0.0,\\n        \\\"e32\\\": 0.0,\\n        \\\"e33\\\": 1.0\\n    }\\n}\"\n        }\n    ],\n    \"m_Precision\": 0,\n    \"m_PreviewExpanded\": false,\n    \"m_CustomColors\": {\n        \"m_SerializableColors\": []\n    }\n}"
        },
        {
            "typeInfo": {
                "fullName": "UnityEditor.ShaderGraph.PropertyNode"
            },
            "JSONnodeData": "{\n    \"m_GuidSerialized\": \"225ff071-4f8f-410f-ac2e-872ac06b1775\",\n    \"m_GroupGuidSerialized\": \"00000000-0000-0000-0000-000000000000\",\n    \"m_Name\": \"Property\",\n    \"m_NodeVersion\": 0,\n    \"m_DrawState\": {\n        \"m_Expanded\": true,\n        \"m_Position\": {\n            \"serializedVersion\": \"2\",\n            \"x\": -232.0,\n            \"y\": 365.0000305175781,\n            \"width\": 111.00000762939453,\n            \"height\": 34.0\n        }\n    },\n    \"m_SerializableSlots\": [\n        {\n            \"typeInfo\": {\n                \"fullName\": \"UnityEditor.ShaderGraph.Vector1MaterialSlot\"\n            },\n            \"JSONnodeData\": \"{\\n    \\\"m_Id\\\": 0,\\n    \\\"m_DisplayName\\\": \\\"Alpha\\\",\\n    \\\"m_SlotType\\\": 1,\\n    \\\"m_Priority\\\": 2147483647,\\n    \\\"m_Hidden\\\": false,\\n    \\\"m_ShaderOutputName\\\": \\\"Out\\\",\\n    \\\"m_StageCapability\\\": 3,\\n    \\\"m_Value\\\": 0.0,\\n    \\\"m_DefaultValue\\\": 0.0,\\n    \\\"m_Labels\\\": [\\n        \\\"X\\\"\\n    ]\\n}\"\n        }\n    ],\n    \"m_Precision\": 0,\n    \"m_PreviewExpanded\": true,\n    \"m_CustomColors\": {\n        \"m_SerializableColors\": []\n    },\n    \"m_PropertyGuidSerialized\": \"43d16cb5-9289-4fe4-81da-c94a065ab59f\"\n}"
        },
        {
            "typeInfo": {
                "fullName": "UnityEditor.ShaderGraph.PropertyNode"
            },
            "JSONnodeData": "{\n    \"m_GuidSerialized\": \"204f10b1-267b-4def-98ed-548c2d5aeb31\",\n    \"m_GroupGuidSerialized\": \"00000000-0000-0000-0000-000000000000\",\n    \"m_Name\": \"Property\",\n    \"m_NodeVersion\": 0,\n    \"m_DrawState\": {\n        \"m_Expanded\": true,\n        \"m_Position\": {\n            \"serializedVersion\": \"2\",\n            \"x\": -505.9999694824219,\n            \"y\": -143.0000457763672,\n            \"width\": 128.0,\n            \"height\": 34.0\n        }\n    },\n    \"m_SerializableSlots\": [\n        {\n            \"typeInfo\": {\n                \"fullName\": \"UnityEditor.ShaderGraph.Vector1MaterialSlot\"\n            },\n            \"JSONnodeData\": \"{\\n    \\\"m_Id\\\": 0,\\n    \\\"m_DisplayName\\\": \\\"emission\\\",\\n    \\\"m_SlotType\\\": 1,\\n    \\\"m_Priority\\\": 2147483647,\\n    \\\"m_Hidden\\\": false,\\n    \\\"m_ShaderOutputName\\\": \\\"Out\\\",\\n    \\\"m_StageCapability\\\": 3,\\n    \\\"m_Value\\\": 0.0,\\n    \\\"m_DefaultValue\\\": 0.0,\\n    \\\"m_Labels\\\": [\\n        \\\"X\\\"\\n    ]\\n}\"\n        }\n    ],\n    \"m_Precision\": 0,\n    \"m_PreviewExpanded\": true,\n    \"m_CustomColors\": {\n        \"m_SerializableColors\": []\n    },\n    \"m_PropertyGuidSerialized\": \"3d7f329c-a2e5-4400-b59c-e622d468bbe9\"\n}"
        },
        {
            "typeInfo": {
                "fullName": "UnityEditor.ShaderGraph.PropertyNode"
            },
            "JSONnodeData": "{\n    \"m_GuidSerialized\": \"3b2df5e3-a538-49b4-b05f-24467905a1b8\",\n    \"m_GroupGuidSerialized\": \"00000000-0000-0000-0000-000000000000\",\n    \"m_Name\": \"Property\",\n    \"m_NodeVersion\": 0,\n    \"m_DrawState\": {\n        \"m_Expanded\": true,\n        \"m_Position\": {\n            \"serializedVersion\": \"2\",\n            \"x\": -937.0,\n            \"y\": 106.0,\n            \"width\": 142.0,\n            \"height\": 34.0\n        }\n    },\n    \"m_SerializableSlots\": [\n        {\n            \"typeInfo\": {\n                \"fullName\": \"UnityEditor.ShaderGraph.Vector4MaterialSlot\"\n            },\n            \"JSONnodeData\": \"{\\n    \\\"m_Id\\\": 0,\\n    \\\"m_DisplayName\\\": \\\"color_ICON\\\",\\n    \\\"m_SlotType\\\": 1,\\n    \\\"m_Priority\\\": 2147483647,\\n    \\\"m_Hidden\\\": false,\\n    \\\"m_ShaderOutputName\\\": \\\"Out\\\",\\n    \\\"m_StageCapability\\\": 3,\\n    \\\"m_Value\\\": {\\n        \\\"x\\\": 0.0,\\n        \\\"y\\\": 0.0,\\n        \\\"z\\\": 0.0,\\n        \\\"w\\\": 0.0\\n    },\\n    \\\"m_DefaultValue\\\": {\\n        \\\"x\\\": 0.0,\\n        \\\"y\\\": 0.0,\\n        \\\"z\\\": 0.0,\\n        \\\"w\\\": 0.0\\n    }\\n}\"\n        }\n    ],\n    \"m_Precision\": 0,\n    \"m_PreviewExpanded\": true,\n    \"m_CustomColors\": {\n        \"m_SerializableColors\": []\n    },\n    \"m_PropertyGuidSerialized\": \"29e299c4-977b-429d-9b1f-f6afb387121b\"\n}"
        },
        {
            "typeInfo": {
                "fullName": "UnityEditor.ShaderGraph.LerpNode"
            },
            "JSONnodeData": "{\n    \"m_GuidSerialized\": \"9aa62376-928e-4212-9c9f-92898c4701cc\",\n    \"m_GroupGuidSerialized\": \"00000000-0000-0000-0000-000000000000\",\n    \"m_Name\": \"Lerp\",\n    \"m_NodeVersion\": 0,\n    \"m_DrawState\": {\n        \"m_Expanded\": true,\n        \"m_Position\": {\n            \"serializedVersion\": \"2\",\n            \"x\": -660.0000610351563,\n            \"y\": 180.99998474121095,\n            \"width\": 207.99998474121095,\n            \"height\": 326.0\n        }\n    },\n    \"m_SerializableSlots\": [\n        {\n            \"typeInfo\": {\n                \"fullName\": \"UnityEditor.ShaderGraph.DynamicVectorMaterialSlot\"\n            },\n            \"JSONnodeData\": \"{\\n    \\\"m_Id\\\": 0,\\n    \\\"m_DisplayName\\\": \\\"A\\\",\\n    \\\"m_SlotType\\\": 0,\\n    \\\"m_Priority\\\": 2147483647,\\n    \\\"m_Hidden\\\": false,\\n    \\\"m_ShaderOutputName\\\": \\\"A\\\",\\n    \\\"m_StageCapability\\\": 3,\\n    \\\"m_Value\\\": {\\n        \\\"x\\\": 0.0,\\n        \\\"y\\\": 0.0,\\n        \\\"z\\\": 0.0,\\n        \\\"w\\\": 0.0\\n    },\\n    \\\"m_DefaultValue\\\": {\\n        \\\"x\\\": 0.0,\\n        \\\"y\\\": 0.0,\\n        \\\"z\\\": 0.0,\\n        \\\"w\\\": 0.0\\n    }\\n}\"\n        },\n        {\n            \"typeInfo\": {\n                \"fullName\": \"UnityEditor.ShaderGraph.DynamicVectorMaterialSlot\"\n            },\n            \"JSONnodeData\": \"{\\n    \\\"m_Id\\\": 1,\\n    \\\"m_DisplayName\\\": \\\"B\\\",\\n    \\\"m_SlotType\\\": 0,\\n    \\\"m_Priority\\\": 2147483647,\\n    \\\"m_Hidden\\\": false,\\n    \\\"m_ShaderOutputName\\\": \\\"B\\\",\\n    \\\"m_StageCapability\\\": 3,\\n    \\\"m_Value\\\": {\\n        \\\"x\\\": 1.0,\\n        \\\"y\\\": 1.0,\\n        \\\"z\\\": 1.0,\\n        \\\"w\\\": 1.0\\n    },\\n    \\\"m_DefaultValue\\\": {\\n        \\\"x\\\": 0.0,\\n        \\\"y\\\": 0.0,\\n        \\\"z\\\": 0.0,\\n        \\\"w\\\": 0.0\\n    }\\n}\"\n        },\n        {\n            \"typeInfo\": {\n                \"fullName\": \"UnityEditor.ShaderGraph.DynamicVectorMaterialSlot\"\n            },\n            \"JSONnodeData\": \"{\\n    \\\"m_Id\\\": 2,\\n    \\\"m_DisplayName\\\": \\\"T\\\",\\n    \\\"m_SlotType\\\": 0,\\n    \\\"m_Priority\\\": 2147483647,\\n    \\\"m_Hidden\\\": false,\\n    \\\"m_ShaderOutputName\\\": \\\"T\\\",\\n    \\\"m_StageCapability\\\": 3,\\n    \\\"m_Value\\\": {\\n        \\\"x\\\": 0.0,\\n        \\\"y\\\": 0.0,\\n        \\\"z\\\": 0.0,\\n        \\\"w\\\": 0.0\\n    },\\n    \\\"m_DefaultValue\\\": {\\n        \\\"x\\\": 0.0,\\n        \\\"y\\\": 0.0,\\n        \\\"z\\\": 0.0,\\n        \\\"w\\\": 0.0\\n    }\\n}\"\n        },\n        {\n            \"typeInfo\": {\n                \"fullName\": \"UnityEditor.ShaderGraph.DynamicVectorMaterialSlot\"\n            },\n            \"JSONnodeData\": \"{\\n    \\\"m_Id\\\": 3,\\n    \\\"m_DisplayName\\\": \\\"Out\\\",\\n    \\\"m_SlotType\\\": 1,\\n    \\\"m_Priority\\\": 2147483647,\\n    \\\"m_Hidden\\\": false,\\n    \\\"m_ShaderOutputName\\\": \\\"Out\\\",\\n    \\\"m_StageCapability\\\": 3,\\n    \\\"m_Value\\\": {\\n        \\\"x\\\": 0.0,\\n        \\\"y\\\": 0.0,\\n        \\\"z\\\": 0.0,\\n        \\\"w\\\": 0.0\\n    },\\n    \\\"m_DefaultValue\\\": {\\n        \\\"x\\\": 0.0,\\n        \\\"y\\\": 0.0,\\n        \\\"z\\\": 0.0,\\n        \\\"w\\\": 0.0\\n    }\\n}\"\n        }\n    ],\n    \"m_Precision\": 0,\n    \"m_PreviewExpanded\": true,\n    \"m_CustomColors\": {\n        \"m_SerializableColors\": []\n    }\n}"
        },
        {
            "typeInfo": {
                "fullName": "UnityEditor.ShaderGraph.PropertyNode"
            },
            "JSONnodeData": "{\n    \"m_GuidSerialized\": \"81710200-1c61-47e1-b3e8-aef11d49c6cd\",\n    \"m_GroupGuidSerialized\": \"00000000-0000-0000-0000-000000000000\",\n    \"m_Name\": \"Property\",\n    \"m_NodeVersion\": 0,\n    \"m_DrawState\": {\n        \"m_Expanded\": true,\n        \"m_Position\": {\n            \"serializedVersion\": \"2\",\n            \"x\": -938.0000610351563,\n            \"y\": 9.999978065490723,\n            \"width\": 137.0,\n            \"height\": 34.0\n        }\n    },\n    \"m_SerializableSlots\": [\n        {\n            \"typeInfo\": {\n                \"fullName\": \"UnityEditor.ShaderGraph.Vector4MaterialSlot\"\n            },\n            \"JSONnodeData\": \"{\\n    \\\"m_Id\\\": 0,\\n    \\\"m_DisplayName\\\": \\\"color_BKG\\\",\\n    \\\"m_SlotType\\\": 1,\\n    \\\"m_Priority\\\": 2147483647,\\n    \\\"m_Hidden\\\": false,\\n    \\\"m_ShaderOutputName\\\": \\\"Out\\\",\\n    \\\"m_StageCapability\\\": 3,\\n    \\\"m_Value\\\": {\\n        \\\"x\\\": 0.0,\\n        \\\"y\\\": 0.0,\\n        \\\"z\\\": 0.0,\\n        \\\"w\\\": 0.0\\n    },\\n    \\\"m_DefaultValue\\\": {\\n        \\\"x\\\": 0.0,\\n        \\\"y\\\": 0.0,\\n        \\\"z\\\": 0.0,\\n        \\\"w\\\": 0.0\\n    }\\n}\"\n        }\n    ],\n    \"m_Precision\": 0,\n    \"m_PreviewExpanded\": true,\n    \"m_CustomColors\": {\n        \"m_SerializableColors\": []\n    },\n    \"m_PropertyGuidSerialized\": \"a156fcad-d2e3-4886-a5ce-c95b183b743d\"\n}"
        }
    ],
    "m_Groups": [],
    "m_StickyNotes": [],
    "m_SerializableEdges": [
        {
            "typeInfo": {
                "fullName": "UnityEditor.Graphing.Edge"
            },
            "JSONnodeData": "{\n    \"m_OutputSlot\": {\n        \"m_SlotId\": 0,\n        \"m_NodeGUIDSerialized\": \"436e64f8-ab43-4796-91b1-90bb69855ec4\"\n    },\n    \"m_InputSlot\": {\n        \"m_SlotId\": 1,\n        \"m_NodeGUIDSerialized\": \"998ee10c-92ec-415a-8444-3d818a3195e4\"\n    }\n}"
        },
        {
            "typeInfo": {
                "fullName": "UnityEditor.Graphing.Edge"
            },
            "JSONnodeData": "{\n    \"m_OutputSlot\": {\n        \"m_SlotId\": 0,\n        \"m_NodeGUIDSerialized\": \"225ff071-4f8f-410f-ac2e-872ac06b1775\"\n    },\n    \"m_InputSlot\": {\n        \"m_SlotId\": 7,\n        \"m_NodeGUIDSerialized\": \"051b24ee-8ca9-4946-8a85-6c4f43a8d930\"\n    }\n}"
        },
        {
            "typeInfo": {
                "fullName": "UnityEditor.Graphing.Edge"
            },
            "JSONnodeData": "{\n    \"m_OutputSlot\": {\n        \"m_SlotId\": 0,\n        \"m_NodeGUIDSerialized\": \"204f10b1-267b-4def-98ed-548c2d5aeb31\"\n    },\n    \"m_InputSlot\": {\n        \"m_SlotId\": 1,\n        \"m_NodeGUIDSerialized\": \"90eec6d3-2073-476e-a740-ad05a81c1d0e\"\n    }\n}"
        },
        {
            "typeInfo": {
                "fullName": "UnityEditor.Graphing.Edge"
            },
            "JSONnodeData": "{\n    \"m_OutputSlot\": {\n        \"m_SlotId\": 0,\n        \"m_NodeGUIDSerialized\": \"998ee10c-92ec-415a-8444-3d818a3195e4\"\n    },\n    \"m_InputSlot\": {\n        \"m_SlotId\": 2,\n        \"m_NodeGUIDSerialized\": \"9aa62376-928e-4212-9c9f-92898c4701cc\"\n    }\n}"
        },
        {
            "typeInfo": {
                "fullName": "UnityEditor.Graphing.Edge"
            },
            "JSONnodeData": "{\n    \"m_OutputSlot\": {\n        \"m_SlotId\": 3,\n        \"m_NodeGUIDSerialized\": \"9aa62376-928e-4212-9c9f-92898c4701cc\"\n    },\n    \"m_InputSlot\": {\n        \"m_SlotId\": 0,\n        \"m_NodeGUIDSerialized\": \"90eec6d3-2073-476e-a740-ad05a81c1d0e\"\n    }\n}"
        },
        {
            "typeInfo": {
                "fullName": "UnityEditor.Graphing.Edge"
            },
            "JSONnodeData": "{\n    \"m_OutputSlot\": {\n        \"m_SlotId\": 0,\n        \"m_NodeGUIDSerialized\": \"81710200-1c61-47e1-b3e8-aef11d49c6cd\"\n    },\n    \"m_InputSlot\": {\n        \"m_SlotId\": 0,\n        \"m_NodeGUIDSerialized\": \"9aa62376-928e-4212-9c9f-92898c4701cc\"\n    }\n}"
        },
        {
            "typeInfo": {
                "fullName": "UnityEditor.Graphing.Edge"
            },
            "JSONnodeData": "{\n    \"m_OutputSlot\": {\n        \"m_SlotId\": 0,\n        \"m_NodeGUIDSerialized\": \"3b2df5e3-a538-49b4-b05f-24467905a1b8\"\n    },\n    \"m_InputSlot\": {\n        \"m_SlotId\": 1,\n        \"m_NodeGUIDSerialized\": \"9aa62376-928e-4212-9c9f-92898c4701cc\"\n    }\n}"
        },
        {
            "typeInfo": {
                "fullName": "UnityEditor.Graphing.Edge"
            },
            "JSONnodeData": "{\n    \"m_OutputSlot\": {\n        \"m_SlotId\": 3,\n        \"m_NodeGUIDSerialized\": \"9aa62376-928e-4212-9c9f-92898c4701cc\"\n    },\n    \"m_InputSlot\": {\n        \"m_SlotId\": 0,\n        \"m_NodeGUIDSerialized\": \"051b24ee-8ca9-4946-8a85-6c4f43a8d930\"\n    }\n}"
        }
    ],
    "m_PreviewData": {
        "serializedMesh": {
            "m_SerializedMesh": "{\"mesh\":{\"instanceID\":0}}",
            "m_Guid": ""
        }
    },
    "m_Path": "Shader Graphs",
    "m_ConcretePrecision": 0,
    "m_ActiveOutputNodeGuidSerialized": "051b24ee-8ca9-4946-8a85-6c4f43a8d930"
}