%YAML 1.1
%TAG !u! tag:unity3d.com,2011:
--- !u!1 &2668199403719372859
GameObject:
  m_ObjectHideFlags: 0
  m_CorrespondingSourceObject: {fileID: 0}
  m_PrefabInstance: {fileID: 0}
  m_PrefabAsset: {fileID: 0}
  serializedVersion: 6
  m_Component:
  - component: {fileID: 8566512755891731785}
  - component: {fileID: 5554680725234309825}
  - component: {fileID: 7540480788754677307}
  - component: {fileID: 9047183094271859381}
  m_Layer: 0
  m_Name: Exteriour_combined_prefab
  m_TagString: Untagged
  m_Icon: {fileID: 0}
  m_NavMeshLayer: 0
  m_StaticEditorFlags: 12
  m_IsActive: 1
--- !u!4 &8566512755891731785
Transform:
  m_ObjectHideFlags: 0
  m_CorrespondingSourceObject: {fileID: 0}
  m_PrefabInstance: {fileID: 0}
  m_PrefabAsset: {fileID: 0}
  m_GameObject: {fileID: 2668199403719372859}
  m_LocalRotation: {x: 0, y: 0, z: 0, w: 1}
  m_LocalPosition: {x: 0, y: 0, z: 0}
  m_LocalScale: {x: 1, y: 1, z: 1}
  m_Children: []
  m_Father: {fileID: 0}
  m_RootOrder: 0
  m_LocalEulerAnglesHint: {x: 0, y: 0, z: 0}
--- !u!114 &5554680725234309825
MonoBehaviour:
  m_ObjectHideFlags: 0
  m_CorrespondingSourceObject: {fileID: 0}
  m_PrefabInstance: {fileID: 0}
  m_PrefabAsset: {fileID: 0}
  m_GameObject: {fileID: 2668199403719372859}
  m_Enabled: 1
  m_EditorHideFlags: 0
  m_Script: {fileID: 11500000, guid: 41659897ac0c84f49977383a29dd0100, type: 3}
  m_Name: 
  m_EditorClassIdentifier: 
  undoMethod: 0
  originalGosToRestore: []
  pathsOfAssetToDelete: Assets/MT Assets/_AssetsData/Meshes/Exteriour_combined (20208301885661).asset
  thisIsPrefab: 1
--- !u!33 &7540480788754677307
MeshFilter:
  m_ObjectHideFlags: 0
  m_CorrespondingSourceObject: {fileID: 0}
  m_PrefabInstance: {fileID: 0}
  m_PrefabAsset: {fileID: 0}
  m_GameObject: {fileID: 2668199403719372859}
  m_Mesh: {fileID: 4300000, guid: 2d9568a29b803f24bbb41c766e4b32af, type: 2}
--- !u!23 &9047183094271859381
MeshRenderer:
  m_ObjectHideFlags: 0
  m_CorrespondingSourceObject: {fileID: 0}
  m_PrefabInstance: {fileID: 0}
  m_PrefabAsset: {fileID: 0}
  m_GameObject: {fileID: 2668199403719372859}
  m_Enabled: 1
  m_CastShadows: 1
  m_ReceiveShadows: 1
  m_DynamicOccludee: 1
  m_MotionVectors: 1
  m_LightProbeUsage: 1
  m_ReflectionProbeUsage: 1
  m_RayTracingMode: 2
  m_RenderingLayerMask: 1
  m_RendererPriority: 0
  m_Materials:
  - {fileID: 2100000, guid: dae7080bc6ef91a458cd86560ddf4b7c, type: 2}
  - {fileID: 2100000, guid: ee0fd48e3a77e6e49aa254d1e2436123, type: 2}
  - {fileID: 2100000, guid: d7e3533ca7ab44c47a1cf918a8cd2998, type: 2}
  - {fileID: 2100000, guid: 9fbce4f7ea78cc640bcbe438e11c644e, type: 2}
  - {fileID: 2100000, guid: 549d61dc4e5051646a295a483d9e3817, type: 2}
  - {fileID: 2100000, guid: 1e6a581f0f83b0340a457fe3e06f7c1f, type: 2}
  - {fileID: 2100000, guid: 4ed35a2a91ec3d9438d79e03cdc111b0, type: 2}
  - {fileID: 2100000, guid: fe25a79f867ba7a449bc93ac5efd4d2f, type: 2}
  - {fileID: 2100000, guid: 84e9b1f87eb152049a4900aa28ab35f3, type: 2}
  - {fileID: 2100000, guid: 7c1da66a173442a41ab5070d3314c8e7, type: 2}
  - {fileID: 2100000, guid: b624cb3b40151ed49981a7856046a901, type: 2}
  - {fileID: 2100000, guid: 3797c27269f2076449f1476a4237f5ef, type: 2}
  - {fileID: 2100000, guid: cb86b781daf1719409bceb9681d7e63e, type: 2}
  m_StaticBatchInfo:
    firstSubMesh: 0
    subMeshCount: 0
  m_StaticBatchRoot: {fileID: 0}
  m_ProbeAnchor: {fileID: 0}
  m_LightProbeVolumeOverride: {fileID: 0}
  m_ScaleInLightmap: 1
  m_ReceiveGI: 1
  m_PreserveUVs: 0
  m_IgnoreNormalsForChartDetection: 0
  m_ImportantGI: 0
  m_StitchLightmapSeams: 1
  m_SelectedEditorRenderState: 3
  m_MinimumChartSize: 4
  m_AutoUVMaxDistance: 0.5
  m_AutoUVMaxAngle: 89
  m_LightmapParameters: {fileID: 0}
  m_SortingLayerID: 0
  m_SortingLayer: 0
  m_SortingOrder: 0
