%YAML 1.1
%TAG !u! tag:unity3d.com,2011:
--- !u!1 &5799937911843386247
GameObject:
  m_ObjectHideFlags: 0
  m_CorrespondingSourceObject: {fileID: 0}
  m_PrefabInstance: {fileID: 0}
  m_PrefabAsset: {fileID: 0}
  serializedVersion: 6
  m_Component:
  - component: {fileID: 8363992914027019628}
  m_Layer: 0
  m_Name: V3_COUPE_C
  m_TagString: Untagged
  m_Icon: {fileID: 0}
  m_NavMeshLayer: 0
  m_StaticEditorFlags: 0
  m_IsActive: 1
--- !u!4 &8363992914027019628
Transform:
  m_ObjectHideFlags: 0
  m_CorrespondingSourceObject: {fileID: 0}
  m_PrefabInstance: {fileID: 0}
  m_PrefabAsset: {fileID: 0}
  m_GameObject: {fileID: 5799937911843386247}
  m_LocalRotation: {x: 0, y: 0.7071068, z: 0, w: 0.70710677}
  m_LocalPosition: {x: -11.988343, y: 0, z: 17.941334}
  m_LocalScale: {x: 1, y: 1, z: 1}
  m_Children:
  - {fileID: 2916870359088640600}
  m_Father: {fileID: 0}
  m_RootOrder: 0
  m_LocalEulerAnglesHint: {x: 0, y: 90.00001, z: 0}
--- !u!1001 &7854412911291242818
PrefabInstance:
  m_ObjectHideFlags: 0
  serializedVersion: 2
  m_Modification:
    m_TransformParent: {fileID: 8363992914027019628}
    m_Modifications:
    - target: {fileID: -4216859302048453862, guid: aaa5b28137f48f44aa7cf1c32a440c61,
        type: 3}
      propertyPath: m_LocalPosition.x
      value: 0
      objectReference: {fileID: 0}
    - target: {fileID: -4216859302048453862, guid: aaa5b28137f48f44aa7cf1c32a440c61,
        type: 3}
      propertyPath: m_LocalPosition.y
      value: 0
      objectReference: {fileID: 0}
    - target: {fileID: -4216859302048453862, guid: aaa5b28137f48f44aa7cf1c32a440c61,
        type: 3}
      propertyPath: m_LocalPosition.z
      value: 0
      objectReference: {fileID: 0}
    - target: {fileID: -4216859302048453862, guid: aaa5b28137f48f44aa7cf1c32a440c61,
        type: 3}
      propertyPath: m_LocalRotation.x
      value: -0
      objectReference: {fileID: 0}
    - target: {fileID: -4216859302048453862, guid: aaa5b28137f48f44aa7cf1c32a440c61,
        type: 3}
      propertyPath: m_LocalRotation.y
      value: -0
      objectReference: {fileID: 0}
    - target: {fileID: -4216859302048453862, guid: aaa5b28137f48f44aa7cf1c32a440c61,
        type: 3}
      propertyPath: m_LocalRotation.z
      value: 0
      objectReference: {fileID: 0}
    - target: {fileID: -4216859302048453862, guid: aaa5b28137f48f44aa7cf1c32a440c61,
        type: 3}
      propertyPath: m_LocalRotation.w
      value: 1
      objectReference: {fileID: 0}
    - target: {fileID: -4216859302048453862, guid: aaa5b28137f48f44aa7cf1c32a440c61,
        type: 3}
      propertyPath: m_RootOrder
      value: 0
      objectReference: {fileID: 0}
    - target: {fileID: -4216859302048453862, guid: aaa5b28137f48f44aa7cf1c32a440c61,
        type: 3}
      propertyPath: m_LocalEulerAnglesHint.x
      value: 0
      objectReference: {fileID: 0}
    - target: {fileID: -4216859302048453862, guid: aaa5b28137f48f44aa7cf1c32a440c61,
        type: 3}
      propertyPath: m_LocalEulerAnglesHint.y
      value: 0
      objectReference: {fileID: 0}
    - target: {fileID: -4216859302048453862, guid: aaa5b28137f48f44aa7cf1c32a440c61,
        type: 3}
      propertyPath: m_LocalEulerAnglesHint.z
      value: 0
      objectReference: {fileID: 0}
    - target: {fileID: -927199367670048503, guid: aaa5b28137f48f44aa7cf1c32a440c61,
        type: 3}
      propertyPath: m_Name
      value: V3_COUPE_C
      objectReference: {fileID: 0}
    m_RemovedComponents: []
  m_SourcePrefab: {fileID: 100100000, guid: aaa5b28137f48f44aa7cf1c32a440c61, type: 3}
--- !u!4 &2916870359088640600 stripped
Transform:
  m_CorrespondingSourceObject: {fileID: -4216859302048453862, guid: aaa5b28137f48f44aa7cf1c32a440c61,
    type: 3}
  m_PrefabInstance: {fileID: 7854412911291242818}
  m_PrefabAsset: {fileID: 0}
