%YAML 1.1
%TAG !u! tag:unity3d.com,2011:
--- !u!74 &7400000
AnimationClip:
  m_ObjectHideFlags: 0
  m_CorrespondingSourceObject: {fileID: 0}
  m_PrefabInstance: {fileID: 0}
  m_PrefabAsset: {fileID: 0}
  m_Name: airFlow_animation_2.01
  serializedVersion: 6
  m_Legacy: 0
  m_Compressed: 0
  m_UseHighQualityCurve: 1
  m_RotationCurves: []
  m_CompressedRotationCurves: []
  m_EulerCurves: []
  m_PositionCurves: []
  m_ScaleCurves: []
  m_FloatCurves: []
  m_PPtrCurves:
  - curve:
    - time: 0
      value: {fileID: 21300000, guid: b4db9ea291543914ba846a10301236b1, type: 3}
    - time: 0.04
      value: {fileID: 21300000, guid: c9171cd355450c84ebd4cd7c649d03df, type: 3}
    - time: 0.08
      value: {fileID: 21300000, guid: e51af0a558ff41a47a7d91404322acdb, type: 3}
    - time: 0.12
      value: {fileID: 21300000, guid: f69cc28db06b4e64798b98975a581a48, type: 3}
    - time: 0.16
      value: {fileID: 21300000, guid: 5d9e0dd6db805a446a607d53cf5ad2bb, type: 3}
    - time: 0.2
      value: {fileID: 21300000, guid: 87ee6dac68dba454e9f1f60a2c912d2e, type: 3}
    - time: 0.24
      value: {fileID: 21300000, guid: 035cc280a12904b48be1e4f6baea5b9b, type: 3}
    - time: 0.28
      value: {fileID: 21300000, guid: ebd888fc87cb7c04ca8fde721d2ca051, type: 3}
    - time: 0.32
      value: {fileID: 21300000, guid: 8de51bb842d7b7a4f910d1d3f53bf62d, type: 3}
    - time: 0.36
      value: {fileID: 21300000, guid: a867824433636d64fa9d855016f4d245, type: 3}
    - time: 0.4
      value: {fileID: 21300000, guid: 5b2558f0fc7fcec4597d7d0486e94a48, type: 3}
    - time: 0.44
      value: {fileID: 21300000, guid: e133e180261a3d4449649ad1769ca9ed, type: 3}
    - time: 0.48
      value: {fileID: 21300000, guid: b420e3901000ac44c9be42facd2a7ce0, type: 3}
    - time: 0.52
      value: {fileID: 21300000, guid: e8ecd2ac1fa723e46832442cafac665d, type: 3}
    - time: 0.56
      value: {fileID: 21300000, guid: 779586d4a7e48fa43b21ef4b85d9b5ec, type: 3}
    - time: 0.6
      value: {fileID: 21300000, guid: 76798334c1c91c849bc6764643ce7232, type: 3}
    - time: 0.64
      value: {fileID: 21300000, guid: e98728c5e61cc444b8e2953a7686ce15, type: 3}
    - time: 0.68
      value: {fileID: 21300000, guid: 6880af889bbf08a4db0e27f2440a7353, type: 3}
    - time: 0.72
      value: {fileID: 21300000, guid: 2a4b7d990fd9f4a4d9ae0f596b71dcbf, type: 3}
    - time: 0.76
      value: {fileID: 21300000, guid: 66d574a0a0a4bcb4ea65d6cef6970825, type: 3}
    - time: 0.8
      value: {fileID: 21300000, guid: 7e6e9dfe4f82b174b9c2c6127352c98f, type: 3}
    - time: 0.84
      value: {fileID: 21300000, guid: d0793a0c70ba137449339691a480e668, type: 3}
    - time: 0.88
      value: {fileID: 21300000, guid: b389ed7ea0003b74b9ddfac1ccb048be, type: 3}
    - time: 0.92
      value: {fileID: 21300000, guid: 8b7fe2b8aa9410448923545321cca9dc, type: 3}
    - time: 0.96
      value: {fileID: 21300000, guid: 204d403841bd6ea4980cd5bc1b7a6108, type: 3}
    - time: 1
      value: {fileID: 21300000, guid: ca9ac3ce3c5303140aeaffc8195010ae, type: 3}
    - time: 1.04
      value: {fileID: 21300000, guid: 775660ef17826814391214f56e35483b, type: 3}
    - time: 1.08
      value: {fileID: 21300000, guid: b25ca01fa094e1f49839b4b0f13393eb, type: 3}
    - time: 1.12
      value: {fileID: 21300000, guid: e1ae49a05bc70b84aa72b3bca8595802, type: 3}
    - time: 1.16
      value: {fileID: 21300000, guid: 0bedb6dc9240f414a9581ccbc4f7b9a9, type: 3}
    - time: 1.2
      value: {fileID: 21300000, guid: a573e7201d3612b4c8fa4ef840ddb2d4, type: 3}
    - time: 1.24
      value: {fileID: 21300000, guid: 3aec71815c9e7a74e88442e10751744e, type: 3}
    - time: 1.28
      value: {fileID: 21300000, guid: 4df9c786eb71de2478769460a4cdea89, type: 3}
    - time: 1.32
      value: {fileID: 21300000, guid: 4ab725be4d4804f4b9f93c897213bd2e, type: 3}
    - time: 1.36
      value: {fileID: 21300000, guid: 57a5063573249814697893cb835c7315, type: 3}
    - time: 1.4
      value: {fileID: 21300000, guid: f6e383106896e094c92a99a2b2529fe7, type: 3}
    - time: 1.44
      value: {fileID: 21300000, guid: 6a81bb66ec1616b4ba60a4de100db7b0, type: 3}
    - time: 1.48
      value: {fileID: 21300000, guid: 09fa3e1445147234eafe1f668d021c94, type: 3}
    - time: 1.52
      value: {fileID: 21300000, guid: cc4090953832bb046b8340f90f8bd947, type: 3}
    - time: 1.56
      value: {fileID: 21300000, guid: 7e3fc0f04b5cf5644a5483ba799b837b, type: 3}
    - time: 1.6
      value: {fileID: 21300000, guid: c95dd48efabf80c4bbb742c6fd2e2db8, type: 3}
    - time: 1.64
      value: {fileID: 21300000, guid: fb37205c15c43774aa45af12bc77c226, type: 3}
    - time: 1.68
      value: {fileID: 21300000, guid: 634eb0f5412d9cc46a2b47f270eb293a, type: 3}
    - time: 1.72
      value: {fileID: 21300000, guid: 15d29118fdf74944799e77442146dadf, type: 3}
    - time: 1.76
      value: {fileID: 21300000, guid: c13dd6268eaffcc409dc1995232a4317, type: 3}
    - time: 1.8
      value: {fileID: 21300000, guid: 74cb74e88d8d4294cbbdfd61b6e42b4b, type: 3}
    - time: 1.84
      value: {fileID: 21300000, guid: 4e43122dc4215d64a827fb373d5f6111, type: 3}
    - time: 1.88
      value: {fileID: 21300000, guid: 5988206b9bf943346b7d7718afc5de75, type: 3}
    - time: 1.92
      value: {fileID: 21300000, guid: a923c95e33aba6e489c78df0cb3668eb, type: 3}
    - time: 1.96
      value: {fileID: 21300000, guid: 60a3a7baf919f0e49b7003717c286265, type: 3}
    - time: 2
      value: {fileID: 21300000, guid: b083fb0df28103048b61accbac4cdc53, type: 3}
    - time: 2.04
      value: {fileID: 21300000, guid: 7d763b4aa8920604b8a0151f4dbd9974, type: 3}
    - time: 2.08
      value: {fileID: 21300000, guid: 376ab2b5b64c4c643b2f79be75a9a38c, type: 3}
    - time: 2.12
      value: {fileID: 21300000, guid: 5c65e582754c3ae4faac8b7f2b3e386e, type: 3}
    - time: 2.16
      value: {fileID: 21300000, guid: 7b280fc3fcc1daa48811c58414026ef0, type: 3}
    - time: 2.2
      value: {fileID: 21300000, guid: d9123d6611b17974c9c1338f6f4aae22, type: 3}
    - time: 2.24
      value: {fileID: 21300000, guid: d6d3578c11f3c31418786acbf99a4ab7, type: 3}
    - time: 2.28
      value: {fileID: 21300000, guid: 329660c186f675b44850d8a48dc4279d, type: 3}
    - time: 2.32
      value: {fileID: 21300000, guid: df1f16a1a4ae0a6419b720e5c4080e47, type: 3}
    - time: 2.36
      value: {fileID: 21300000, guid: 2c8d15b54aeccce4b96d286073a21490, type: 3}
    - time: 2.4
      value: {fileID: 21300000, guid: 2f5dba053df279241bf690eaa70e7ee9, type: 3}
    - time: 2.44
      value: {fileID: 21300000, guid: 02443b3e4d15f20409d29b423ea1e6b1, type: 3}
    - time: 2.48
      value: {fileID: 21300000, guid: 848d95370ae8b4549aef847ab4d42aab, type: 3}
    - time: 2.52
      value: {fileID: 21300000, guid: fcefb22ce54121b40a86db40eead5539, type: 3}
    - time: 2.56
      value: {fileID: 21300000, guid: 5b4ce138b11256b42a314b67137e94eb, type: 3}
    - time: 2.6
      value: {fileID: 21300000, guid: 05503a916e36d4148bd7a76ecdfcc21f, type: 3}
    - time: 2.64
      value: {fileID: 21300000, guid: 48742d6c0ce82ee48a0a2e36bd850051, type: 3}
    - time: 2.68
      value: {fileID: 21300000, guid: 08401dfaed35f7d4bbfdeaed0df79dc4, type: 3}
    - time: 2.72
      value: {fileID: 21300000, guid: 8e073b44fc98d724f989c4653347ef56, type: 3}
    - time: 2.76
      value: {fileID: 21300000, guid: 7905a146dd444474c95ab83347ca6cc5, type: 3}
    - time: 2.8
      value: {fileID: 21300000, guid: d49955222232e8640af5a42f6970e4a8, type: 3}
    - time: 2.84
      value: {fileID: 21300000, guid: f355933296f9d694dbeeaa0efdcea6e6, type: 3}
    - time: 2.88
      value: {fileID: 21300000, guid: 78d803a467e47c84ca5fe9a09b0a6b9b, type: 3}
    - time: 2.92
      value: {fileID: 21300000, guid: a4352eaa6da09c446aed79be1768edee, type: 3}
    - time: 2.96
      value: {fileID: 21300000, guid: 49b3c30c77ea5c74eade66b2da14e4b6, type: 3}
    - time: 3
      value: {fileID: 21300000, guid: ca009d3874fae8542bb54693d1a74f90, type: 3}
    - time: 3.04
      value: {fileID: 21300000, guid: ae477cfa6593b074aace2edcbfd4caba, type: 3}
    - time: 3.08
      value: {fileID: 21300000, guid: 2ce304d484598ee4783d8a384ad2ffa4, type: 3}
    - time: 3.12
      value: {fileID: 21300000, guid: 8a49d5b86acdb644385a89385f1b3caa, type: 3}
    - time: 3.16
      value: {fileID: 21300000, guid: dadc632d9a8047d4a9ef82f4a9c52730, type: 3}
    - time: 3.2
      value: {fileID: 21300000, guid: d7250837cedf187419eae8d95718f099, type: 3}
    - time: 3.24
      value: {fileID: 21300000, guid: 4789ff44870a0c748993fe8a454b60e5, type: 3}
    - time: 3.28
      value: {fileID: 21300000, guid: 591f92cfbc4dd0f44925eb0f79da6a24, type: 3}
    - time: 3.32
      value: {fileID: 21300000, guid: e3c3596ccfec7694f974241bca6b764d, type: 3}
    - time: 3.36
      value: {fileID: 21300000, guid: 34d2d5da4080a6b4bb5ea3cd3d12724c, type: 3}
    - time: 3.4
      value: {fileID: 21300000, guid: b96e003ae8f5f724eb49739a8a3a4d2c, type: 3}
    - time: 3.44
      value: {fileID: 21300000, guid: 36d267f90c6ea974a912ac132f12ac4b, type: 3}
    - time: 3.48
      value: {fileID: 21300000, guid: 3e1bb6f8d87223e47a97ac2b6bfa2c18, type: 3}
    - time: 3.52
      value: {fileID: 21300000, guid: e9ea5b79794d09b419f3622dd6cae41a, type: 3}
    - time: 3.56
      value: {fileID: 21300000, guid: 92b2defe61b3849428e0582ad8918ffe, type: 3}
    - time: 3.6
      value: {fileID: 21300000, guid: c3957c2cda345394ca20446a38200465, type: 3}
    - time: 3.64
      value: {fileID: 21300000, guid: b7c409af14bbaf147ab30c832d03db19, type: 3}
    - time: 3.68
      value: {fileID: 21300000, guid: 93f12acb30236b542bad5a107f6a60ac, type: 3}
    - time: 3.72
      value: {fileID: 21300000, guid: cd8fee3b6e2c3074a9409291f48a4b61, type: 3}
    - time: 3.76
      value: {fileID: 21300000, guid: dcc35ada8f37b66439773b18ccf52ff5, type: 3}
    - time: 3.8
      value: {fileID: 21300000, guid: 0c497821f955c744fb8ad9b72be04f6d, type: 3}
    - time: 3.84
      value: {fileID: 21300000, guid: fd1a8a1bdc418784d9c93540afde285d, type: 3}
    - time: 3.88
      value: {fileID: 21300000, guid: 833718d9f01a1464092e2e1431fc1414, type: 3}
    - time: 3.92
      value: {fileID: 21300000, guid: f98e946addaa85045a4400b601b966cf, type: 3}
    - time: 3.96
      value: {fileID: 21300000, guid: 0bf03a38457b4b245a57de9febc073b8, type: 3}
    attribute: m_Sprite
    path: 
    classID: 212
    script: {fileID: 0}
  m_SampleRate: 25
  m_WrapMode: 0
  m_Bounds:
    m_Center: {x: 0, y: 0, z: 0}
    m_Extent: {x: 0, y: 0, z: 0}
  m_ClipBindingConstant:
    genericBindings:
    - serializedVersion: 2
      path: 0
      attribute: 0
      script: {fileID: 0}
      typeID: 212
      customType: 23
      isPPtrCurve: 1
    pptrCurveMapping:
    - {fileID: 21300000, guid: b4db9ea291543914ba846a10301236b1, type: 3}
    - {fileID: 21300000, guid: c9171cd355450c84ebd4cd7c649d03df, type: 3}
    - {fileID: 21300000, guid: e51af0a558ff41a47a7d91404322acdb, type: 3}
    - {fileID: 21300000, guid: f69cc28db06b4e64798b98975a581a48, type: 3}
    - {fileID: 21300000, guid: 5d9e0dd6db805a446a607d53cf5ad2bb, type: 3}
    - {fileID: 21300000, guid: 87ee6dac68dba454e9f1f60a2c912d2e, type: 3}
    - {fileID: 21300000, guid: 035cc280a12904b48be1e4f6baea5b9b, type: 3}
    - {fileID: 21300000, guid: ebd888fc87cb7c04ca8fde721d2ca051, type: 3}
    - {fileID: 21300000, guid: 8de51bb842d7b7a4f910d1d3f53bf62d, type: 3}
    - {fileID: 21300000, guid: a867824433636d64fa9d855016f4d245, type: 3}
    - {fileID: 21300000, guid: 5b2558f0fc7fcec4597d7d0486e94a48, type: 3}
    - {fileID: 21300000, guid: e133e180261a3d4449649ad1769ca9ed, type: 3}
    - {fileID: 21300000, guid: b420e3901000ac44c9be42facd2a7ce0, type: 3}
    - {fileID: 21300000, guid: e8ecd2ac1fa723e46832442cafac665d, type: 3}
    - {fileID: 21300000, guid: 779586d4a7e48fa43b21ef4b85d9b5ec, type: 3}
    - {fileID: 21300000, guid: 76798334c1c91c849bc6764643ce7232, type: 3}
    - {fileID: 21300000, guid: e98728c5e61cc444b8e2953a7686ce15, type: 3}
    - {fileID: 21300000, guid: 6880af889bbf08a4db0e27f2440a7353, type: 3}
    - {fileID: 21300000, guid: 2a4b7d990fd9f4a4d9ae0f596b71dcbf, type: 3}
    - {fileID: 21300000, guid: 66d574a0a0a4bcb4ea65d6cef6970825, type: 3}
    - {fileID: 21300000, guid: 7e6e9dfe4f82b174b9c2c6127352c98f, type: 3}
    - {fileID: 21300000, guid: d0793a0c70ba137449339691a480e668, type: 3}
    - {fileID: 21300000, guid: b389ed7ea0003b74b9ddfac1ccb048be, type: 3}
    - {fileID: 21300000, guid: 8b7fe2b8aa9410448923545321cca9dc, type: 3}
    - {fileID: 21300000, guid: 204d403841bd6ea4980cd5bc1b7a6108, type: 3}
    - {fileID: 21300000, guid: ca9ac3ce3c5303140aeaffc8195010ae, type: 3}
    - {fileID: 21300000, guid: 775660ef17826814391214f56e35483b, type: 3}
    - {fileID: 21300000, guid: b25ca01fa094e1f49839b4b0f13393eb, type: 3}
    - {fileID: 21300000, guid: e1ae49a05bc70b84aa72b3bca8595802, type: 3}
    - {fileID: 21300000, guid: 0bedb6dc9240f414a9581ccbc4f7b9a9, type: 3}
    - {fileID: 21300000, guid: a573e7201d3612b4c8fa4ef840ddb2d4, type: 3}
    - {fileID: 21300000, guid: 3aec71815c9e7a74e88442e10751744e, type: 3}
    - {fileID: 21300000, guid: 4df9c786eb71de2478769460a4cdea89, type: 3}
    - {fileID: 21300000, guid: 4ab725be4d4804f4b9f93c897213bd2e, type: 3}
    - {fileID: 21300000, guid: 57a5063573249814697893cb835c7315, type: 3}
    - {fileID: 21300000, guid: f6e383106896e094c92a99a2b2529fe7, type: 3}
    - {fileID: 21300000, guid: 6a81bb66ec1616b4ba60a4de100db7b0, type: 3}
    - {fileID: 21300000, guid: 09fa3e1445147234eafe1f668d021c94, type: 3}
    - {fileID: 21300000, guid: cc4090953832bb046b8340f90f8bd947, type: 3}
    - {fileID: 21300000, guid: 7e3fc0f04b5cf5644a5483ba799b837b, type: 3}
    - {fileID: 21300000, guid: c95dd48efabf80c4bbb742c6fd2e2db8, type: 3}
    - {fileID: 21300000, guid: fb37205c15c43774aa45af12bc77c226, type: 3}
    - {fileID: 21300000, guid: 634eb0f5412d9cc46a2b47f270eb293a, type: 3}
    - {fileID: 21300000, guid: 15d29118fdf74944799e77442146dadf, type: 3}
    - {fileID: 21300000, guid: c13dd6268eaffcc409dc1995232a4317, type: 3}
    - {fileID: 21300000, guid: 74cb74e88d8d4294cbbdfd61b6e42b4b, type: 3}
    - {fileID: 21300000, guid: 4e43122dc4215d64a827fb373d5f6111, type: 3}
    - {fileID: 21300000, guid: 5988206b9bf943346b7d7718afc5de75, type: 3}
    - {fileID: 21300000, guid: a923c95e33aba6e489c78df0cb3668eb, type: 3}
    - {fileID: 21300000, guid: 60a3a7baf919f0e49b7003717c286265, type: 3}
    - {fileID: 21300000, guid: b083fb0df28103048b61accbac4cdc53, type: 3}
    - {fileID: 21300000, guid: 7d763b4aa8920604b8a0151f4dbd9974, type: 3}
    - {fileID: 21300000, guid: 376ab2b5b64c4c643b2f79be75a9a38c, type: 3}
    - {fileID: 21300000, guid: 5c65e582754c3ae4faac8b7f2b3e386e, type: 3}
    - {fileID: 21300000, guid: 7b280fc3fcc1daa48811c58414026ef0, type: 3}
    - {fileID: 21300000, guid: d9123d6611b17974c9c1338f6f4aae22, type: 3}
    - {fileID: 21300000, guid: d6d3578c11f3c31418786acbf99a4ab7, type: 3}
    - {fileID: 21300000, guid: 329660c186f675b44850d8a48dc4279d, type: 3}
    - {fileID: 21300000, guid: df1f16a1a4ae0a6419b720e5c4080e47, type: 3}
    - {fileID: 21300000, guid: 2c8d15b54aeccce4b96d286073a21490, type: 3}
    - {fileID: 21300000, guid: 2f5dba053df279241bf690eaa70e7ee9, type: 3}
    - {fileID: 21300000, guid: 02443b3e4d15f20409d29b423ea1e6b1, type: 3}
    - {fileID: 21300000, guid: 848d95370ae8b4549aef847ab4d42aab, type: 3}
    - {fileID: 21300000, guid: fcefb22ce54121b40a86db40eead5539, type: 3}
    - {fileID: 21300000, guid: 5b4ce138b11256b42a314b67137e94eb, type: 3}
    - {fileID: 21300000, guid: 05503a916e36d4148bd7a76ecdfcc21f, type: 3}
    - {fileID: 21300000, guid: 48742d6c0ce82ee48a0a2e36bd850051, type: 3}
    - {fileID: 21300000, guid: 08401dfaed35f7d4bbfdeaed0df79dc4, type: 3}
    - {fileID: 21300000, guid: 8e073b44fc98d724f989c4653347ef56, type: 3}
    - {fileID: 21300000, guid: 7905a146dd444474c95ab83347ca6cc5, type: 3}
    - {fileID: 21300000, guid: d49955222232e8640af5a42f6970e4a8, type: 3}
    - {fileID: 21300000, guid: f355933296f9d694dbeeaa0efdcea6e6, type: 3}
    - {fileID: 21300000, guid: 78d803a467e47c84ca5fe9a09b0a6b9b, type: 3}
    - {fileID: 21300000, guid: a4352eaa6da09c446aed79be1768edee, type: 3}
    - {fileID: 21300000, guid: 49b3c30c77ea5c74eade66b2da14e4b6, type: 3}
    - {fileID: 21300000, guid: ca009d3874fae8542bb54693d1a74f90, type: 3}
    - {fileID: 21300000, guid: ae477cfa6593b074aace2edcbfd4caba, type: 3}
    - {fileID: 21300000, guid: 2ce304d484598ee4783d8a384ad2ffa4, type: 3}
    - {fileID: 21300000, guid: 8a49d5b86acdb644385a89385f1b3caa, type: 3}
    - {fileID: 21300000, guid: dadc632d9a8047d4a9ef82f4a9c52730, type: 3}
    - {fileID: 21300000, guid: d7250837cedf187419eae8d95718f099, type: 3}
    - {fileID: 21300000, guid: 4789ff44870a0c748993fe8a454b60e5, type: 3}
    - {fileID: 21300000, guid: 591f92cfbc4dd0f44925eb0f79da6a24, type: 3}
    - {fileID: 21300000, guid: e3c3596ccfec7694f974241bca6b764d, type: 3}
    - {fileID: 21300000, guid: 34d2d5da4080a6b4bb5ea3cd3d12724c, type: 3}
    - {fileID: 21300000, guid: b96e003ae8f5f724eb49739a8a3a4d2c, type: 3}
    - {fileID: 21300000, guid: 36d267f90c6ea974a912ac132f12ac4b, type: 3}
    - {fileID: 21300000, guid: 3e1bb6f8d87223e47a97ac2b6bfa2c18, type: 3}
    - {fileID: 21300000, guid: e9ea5b79794d09b419f3622dd6cae41a, type: 3}
    - {fileID: 21300000, guid: 92b2defe61b3849428e0582ad8918ffe, type: 3}
    - {fileID: 21300000, guid: c3957c2cda345394ca20446a38200465, type: 3}
    - {fileID: 21300000, guid: b7c409af14bbaf147ab30c832d03db19, type: 3}
    - {fileID: 21300000, guid: 93f12acb30236b542bad5a107f6a60ac, type: 3}
    - {fileID: 21300000, guid: cd8fee3b6e2c3074a9409291f48a4b61, type: 3}
    - {fileID: 21300000, guid: dcc35ada8f37b66439773b18ccf52ff5, type: 3}
    - {fileID: 21300000, guid: 0c497821f955c744fb8ad9b72be04f6d, type: 3}
    - {fileID: 21300000, guid: fd1a8a1bdc418784d9c93540afde285d, type: 3}
    - {fileID: 21300000, guid: 833718d9f01a1464092e2e1431fc1414, type: 3}
    - {fileID: 21300000, guid: f98e946addaa85045a4400b601b966cf, type: 3}
    - {fileID: 21300000, guid: 0bf03a38457b4b245a57de9febc073b8, type: 3}
  m_AnimationClipSettings:
    serializedVersion: 2
    m_AdditiveReferencePoseClip: {fileID: 0}
    m_AdditiveReferencePoseTime: 0
    m_StartTime: 0
    m_StopTime: 4
    m_OrientationOffsetY: 0
    m_Level: 0
    m_CycleOffset: 0
    m_HasAdditiveReferencePose: 0
    m_LoopTime: 0
    m_LoopBlend: 0
    m_LoopBlendOrientation: 0
    m_LoopBlendPositionY: 0
    m_LoopBlendPositionXZ: 0
    m_KeepOriginalOrientation: 0
    m_KeepOriginalPositionY: 1
    m_KeepOriginalPositionXZ: 0
    m_HeightFromFeet: 0
    m_Mirror: 0
  m_EditorCurves: []
  m_EulerEditorCurves: []
  m_HasGenericRootTransform: 0
  m_HasMotionFloatCurves: 0
  m_Events: []
