%YAML 1.1
%TAG !u! tag:unity3d.com,2011:
--- !u!21 &2100000
Material:
  serializedVersion: 6
  m_ObjectHideFlags: 0
  m_CorrespondingSourceObject: {fileID: 0}
  m_PrefabInstance: {fileID: 0}
  m_PrefabAsset: {fileID: 0}
  m_Name: IntElement_01
  m_Shader: {fileID: -6465566751694194690, guid: 36c1366408ee7434f81a0eccf1974dd8,
    type: 3}
  m_ShaderKeywords: 
  m_LightmapFlags: 1
  m_EnableInstancingVariants: 1
  m_DoubleSidedGI: 0
  m_CustomRenderQueue: -1
  stringTagMap:
    MotionVector: User
  disabledShaderPasses:
  - MOTIONVECTORS
  m_SavedProperties:
    serializedVersion: 3
    m_TexEnvs:
    - Texture2D_CB2B24E6:
        m_Texture: {fileID: 2800000, guid: e0e22523ca124a946a347db0b9fffebc, type: 3}
        m_Scale: {x: 1, y: 1}
        m_Offset: {x: 0, y: 0}
    m_Floats:
    - _emission: 0.866
    - alpha: 0.75
    - emit: 1
    m_Colors:
    - color_BKG: {r: 0, g: 0.52713037, b: 0.8509804, a: 1}
    - color_ICON: {r: 1, g: 1, b: 1, a: 1}
